<?xml version="1.0" encoding="utf-8"?>
<!-- Generator: Adobe Illustrator 25.2.3, SVG Export Plug-In . SVG Version: 6.00 Build 0)  -->
<svg version="1.1" id="Layer_1" xmlns="http://www.w3.org/2000/svg" xmlns:xlink="http://www.w3.org/1999/xlink" x="0px" y="0px"
	 viewBox="0 0 320 512" style="enable-background:new 0 0 320 512;" xml:space="preserve">
<style type="text/css">
	.st0{fill:#777777;}
</style>
<path class="st0" d="M285.5,273L91.1,467.3c-9.4,9.4-24.6,9.4-33.9,0l-22.7-22.7c-9.4-9.4-9.4-24.5,0-33.9l154-154.7l-154-154.7
	c-9.3-9.4-9.3-24.5,0-33.9l22.7-22.7c9.4-9.4,24.6-9.4,33.9,0L285.5,239C294.8,248.4,294.8,263.6,285.5,273z"/>
</svg>
