<?xml version="1.0" encoding="utf-8"?>
<!-- Generator: Adobe Illustrator 24.2.3, SVG Export Plug-In . SVG Version: 6.00 Build 0)  -->
<svg version="1.1" id="Layer_1" xmlns="http://www.w3.org/2000/svg" xmlns:xlink="http://www.w3.org/1999/xlink" x="0px" y="0px"
	 viewBox="0 0 256 256" style="enable-background:new 0 0 256 256;" xml:space="preserve">
<style type="text/css">
	.st0{fill:#232323;}
	.st1{fill:#242324;}
</style>
<g>
	<path class="st0" d="M136.54,155.71c-4.02-14.1-7.79-27.36-11.57-40.62c-4.71-16.53-9.38-33.07-14.16-49.57
		c-1.47-5.08-4.89-7.72-9.35-7.69c-4.57,0.02-7.53,2.53-8.93,8.03c-4.96,19.5-9.89,39.01-14.67,58.55
		c-0.64,2.61-1.59,3.59-4.36,3.57c-16.95-0.12-33.9-0.09-50.85-0.02c-2.11,0.01-3.46-0.61-4.72-2.37
		c-15.5-21.76-16.8-53.48-2.74-76.16c8.03-12.95,20.12-20.55,34.74-23.92c14.91-3.43,29.8-3.71,44.1,2.92
		c11.21,5.2,21.14,12.38,30.05,20.87c3.1,2.95,4.82,2.65,7.84-0.08c12.51-11.34,25.8-22.01,42.95-24.84
		c28.67-4.73,61.19,5.23,71.85,37.79c7.35,22.49,4.08,43.72-8.84,63.52c-1.07,1.64-2.33,2.29-4.32,2.28
		c-14.76-0.08-29.52-0.09-44.27,0.01c-2.19,0.01-3.42-0.64-4.4-2.64c-4.34-8.88-8.91-17.66-13.25-26.54
		c-1.85-3.78-4.51-6.01-8.85-5.86c-4.31,0.15-7.04,2.27-8.3,6.43c-4.87,16.17-9.78,32.33-14.67,48.5
		C139.05,150.32,138.52,152.88,136.54,155.71z"/>
	<path class="st1" d="M35.45,146.49c1.78-1.18,3.71-0.34,5.53-0.35c13.59-0.07,27.17-0.01,40.76-0.05c7.02-0.02,9.99-2.54,11.64-9.3
		c2.42-9.91,4.96-19.79,7.49-29.68c0.24-0.92,0.17-2.11,1.79-2.64c2.01,3.65,2.58,7.83,3.71,11.75
		c7.13,24.63,14.07,49.32,21.12,73.97c1.6,5.61,4.74,8.26,9.37,8.18c4.6-0.07,7.46-2.81,9.17-8.51
		c6.2-20.75,12.45-41.48,18.83-62.74c3.13,3.59,4.55,7.59,6.3,11.31c2.53,5.4,6.3,7.89,12.38,7.73c11.39-0.3,22.79-0.15,34.18-0.21
		c1.02-0.01,2.04-0.18,3.03,0.81c-7.22,7.23-14.54,14.26-22.04,21.13c-7.85,7.19-15.23,14.89-22.88,22.29
		c-13.73,13.28-27.49,26.52-41.26,39.75c-4.05,3.89-9.12,3.93-13.19,0.01c-14.14-13.6-28.24-27.25-42.37-40.86
		c-13.82-13.31-27.66-26.6-41.47-39.92C36.74,148.41,35.56,147.89,35.45,146.49z"/>
</g>
</svg>
