<?xml version="1.0" encoding="utf-8"?>
<!-- Generator: Adobe Illustrator 24.3.0, SVG Export Plug-In . SVG Version: 6.00 Build 0)  -->
<svg version="1.1" id="Layer_1" xmlns="http://www.w3.org/2000/svg" xmlns:xlink="http://www.w3.org/1999/xlink" x="0px" y="0px"
	 viewBox="0 0 40 40" style="enable-background:new 0 0 40 40;" xml:space="preserve">
<style type="text/css">
	.st0{fill:#434343;}
</style>
<path class="st0" d="M38.8,19.9c0,2.8,0,5.6,0,8.5c0,1.2-0.3,1.5-1.4,1.5c-2.4,0-4.9,0-7.3,0c-1.1,0-1.4-0.3-1.4-1.4
	c0-5.7,0-11.4,0-17.2c0-1,0.4-1.4,1.3-1.4c2.5,0,5,0,7.5,0c1,0,1.4,0.4,1.3,1.4C38.8,14.2,38.8,17.1,38.8,19.9z M33.8,12.8
	c1.1,0,2.2,0,3.3,0c0.3,0,0.5-0.4,0.8-0.6c-0.2-0.3-0.5-0.8-0.7-0.8c-2.2-0.1-4.4-0.1-6.6,0c-0.3,0-0.5,0.5-0.8,0.7
	c0.3,0.2,0.5,0.6,0.8,0.6C31.6,12.8,32.7,12.8,33.8,12.8z M33.8,15.1c1.1,0,2.1,0.1,3.2,0c0.3,0,0.6-0.5,0.9-0.7
	c-0.3-0.2-0.6-0.7-0.8-0.7c-2.2-0.1-4.3-0.1-6.5,0c-0.3,0-0.6,0.5-0.8,0.8c0.3,0.2,0.6,0.6,0.9,0.6C31.7,15.1,32.7,15.1,33.8,15.1z
	 M33.8,16c-1.1,0-2.1-0.1-3.2,0c-0.3,0-0.6,0.4-0.9,0.7c0.3,0.3,0.6,0.7,0.9,0.7c2.1,0.1,4.2,0.1,6.3,0c0.3,0,0.6-0.5,0.9-0.7
	c-0.3-0.2-0.6-0.7-0.9-0.7C35.9,15.9,34.9,16,33.8,16z M33.9,18.3c-1,0-2.1,0-3.1,0c-0.5,0-1.2,0-1.1,0.8c0.1,0.3,0.6,0.7,1,0.7
	c2,0.1,4.1,0.1,6.1,0c0.3,0,0.7-0.5,1-0.7c-0.4-0.2-0.7-0.7-1.1-0.7C35.8,18.2,34.9,18.3,33.9,18.3z M32.6,26.3
	c-0.5-0.4-0.8-0.7-1.1-0.9c-0.3,0.3-0.7,0.6-0.7,1c0,0.3,0.5,0.8,0.8,0.8C31.9,27.2,32.2,26.7,32.6,26.3z M35.8,25
	c-0.3,0.6-0.7,1-0.7,1.3c0,0.3,0.5,0.6,0.7,0.9c0.3-0.3,0.7-0.6,0.8-1C36.7,26,36.2,25.6,35.8,25z M34.8,26.3
	c-0.5-0.4-0.9-0.9-1.1-0.8c-0.3,0.1-0.7,0.6-0.7,0.9c0,0.3,0.5,0.8,0.8,0.8C34,27.2,34.3,26.7,34.8,26.3z"/>
<path class="st0" d="M14.3,10c3.6,0,7.3,0,10.9,0c1.6,0,2.2,0.5,2.2,2.1c0,4.2,0,8.3,0,12.5c0,1.5-0.6,2.1-2.1,2.1
	c-7.4,0-14.7,0-22.1,0c-1.6,0-2.1-0.6-2.1-2.1c0-4.2,0-8.3,0-12.5c0-1.7,0.5-2.2,2.1-2.2C7,10,10.6,10,14.3,10z M25.8,11.8
	c-7.7,0-15.4,0-23,0c0,4.4,0,8.6,0,12.9c7.7,0,15.3,0,23,0C25.8,20.4,25.8,16.1,25.8,11.8z"/>
<path class="st0" d="M14.4,30c-1.2,0-2.5,0-3.7,0c-0.8,0-1.2-0.3-1.2-1.1c0-0.7,0.4-1.2,1.1-1.2c2.5,0,5.1,0,7.6,0
	c0.7,0,1.2,0.4,1.1,1.2c0,0.8-0.4,1.1-1.2,1.1C16.9,29.9,15.6,30,14.4,30z"/>
</svg>
